<svg width="512" height="512" viewBox="0 0 512 512" fill="none" xmlns="http://www.w3.org/2000/svg">
<path fill-rule="evenodd" clip-rule="evenodd" d="M85.3262 369.527C122.037 424.773 184.847 461.21 256.179 461.21C369.459 461.21 461.21 369.434 461.21 256.205C461.21 245.198 460.369 234.395 458.662 223.847L442.702 237.465L432.513 235.059L427.7 239.257L428.058 242.073C428.212 243.405 428.801 246.041 429.799 250.035C431.796 258.201 432.846 266.317 432.846 274.278C432.846 281.677 432.59 284.083 430.9 291.225L422.196 291.277L397.646 271.385L378.958 275.584L366.9 273.536L351.591 278.221L358.503 284.211L370.51 280.806L380.903 289.101L379.265 292.736L375.015 299.648L365.774 312.883L351.566 324.326L325.274 297.088L318.516 297.805L346.522 329.907L357.863 327.629L360.705 333.44L349.262 352.128L327.015 373.376L317.006 398.694C316.775 399.36 315.7 400.179 314.113 400.921C310.913 402.483 307.15 405.248 302.951 409.165C300.022 411.912 297.776 413.991 296.246 415.407L296.237 415.415L296.226 415.426C294.973 416.585 294.205 417.296 293.94 417.561C289.537 421.453 284.186 425.472 277.991 429.645C271.873 433.792 265.703 437.453 259.61 440.525C248.833 446.029 236.75 449.049 225.793 449.049C218.625 449.049 211.329 447.821 204.263 445.44C203.29 445.107 202.65 444.595 202.65 444.185L207.514 430.464C207.745 429.824 211.841 425.165 219.598 416.717C223.105 412.877 225.946 407.68 227.943 401.485C230.862 392.397 232.961 386.79 234.19 384.819C238.644 377.651 240.743 371.533 239.233 370.022L210.177 340.761L197.966 318.105L199.271 312.729C200.167 308.992 203.137 302.438 208.794 291.635C211.841 285.773 214.375 282.675 217.166 281.293L236.596 271.718L274.382 277.427L285.876 285.107L291.278 284.441L314.318 290.457L320.078 275.43L290.817 267.187L280.423 256.87L278.964 257.28L283.802 269.542L277.94 270.694L277.351 269.261L279.348 268.877C279.45 269.005 277.658 261.325 273.05 259.2C272.774 259.068 272.512 258.938 272.261 258.813C271.044 258.207 270.056 257.715 268.698 257.715C266.446 257.715 262.81 259.072 260.89 260.838C254.49 266.752 249.498 270.771 249.012 270.413L236.954 261.325L241.434 250.112L243.252 250.573C244.353 250.854 245.505 250.982 246.734 250.982C250.471 250.982 252.801 248.781 253.287 246.605C253.825 243.917 251.982 242.585 251.982 242.585C252.03 242.512 250.921 241.421 250.813 241.336C250.943 241.292 252.519 239.418 252.496 239.361C252.618 239.405 257.076 240.54 259.687 240.691C262.759 240.87 265.729 240.205 267.009 238.797L269.876 234.214L274.791 232.832L275.636 226.355L278.631 226.56C278.631 226.56 280.346 228.889 281.038 232.013L289.537 229.811L292.046 221.158L290.689 219.597L294.401 211.251L291.201 208.998L285.748 224.384L282.753 224.768L281.396 221.337L273.742 221.901L269.466 215.014L278.785 205.465L287.873 193.382L300.622 197.35L303.77 203.673L307.662 203.571L306.202 194.381L316.647 184.55L309.71 153.062L314.164 143.155L319.207 143.437L319.898 135.68L286.542 99.1486L287.642 89.267L315.239 82.995L319.13 84.1726L334.874 82.6622L338.484 84.2495L363 81.8177V81.5L363.315 81.3897C332.161 62.2462 295.45 51.2 256.179 51.2C221.363 51.2 188.544 59.9296 159.821 75.2128L159.736 75.2579L159.751 75.2768L159.822 75.2389L169.78 77.0053L198.247 81.2549C198.247 81.2549 226.971 87.6037 241.153 86.5797C260.828 85.1653 272.255 77.5216 277.155 74.2438L277.351 74.1125L279.348 75.1877L272.155 80.8197L277.761 82.9957L279.963 89.3445L279.425 98.3045L276.967 100.25L264.219 108.57L247.886 116.199L229.838 133.581L234.113 137.344L227.969 148.992L220.75 148.096L220.955 144.794L209.742 137.472L197.889 149.888L213.326 152.884L214.529 156.954L204.417 169.165L214.068 172.8L203.419 187.341L188.801 186.138L183.527 191.898L166.119 181.991L137.78 172.468L130.945 184.295L126.03 180.455L129.563 171.802L136.731 166.016C136.731 166.016 128.257 146.253 127.771 145.895C127.294 145.544 126.809 145.175 126.315 144.799C123.999 143.035 121.504 141.134 118.887 140.416C117.531 140.032 116.251 139.879 115.047 139.879C110.516 139.879 103.681 143.898 103.681 147.943L103.963 153.857L104.193 155.188L111.643 161.434L111.028 166.068L100.993 166.528L88.3465 198.093L107.803 227.303L110.491 232.73C110.561 232.871 111.166 235.468 112.016 239.114C113.638 246.079 116.153 256.869 117.531 261.658C120.489 272.059 121.967 285.049 122.666 291.189C122.905 293.286 123.052 294.584 123.137 294.708L143.617 324.506L142.107 336.999L110.977 360.397L99.329 357.479L85.4633 369.013L85.3262 369.527ZM252.496 239.361C252.493 239.36 252.494 239.36 252.494 239.36L252.495 239.36L252.496 239.361ZM250.813 241.336C250.81 241.337 250.808 241.337 250.807 241.336L250.806 241.336C250.805 241.335 250.805 241.335 250.804 241.334C250.804 241.333 250.804 241.332 250.804 241.331C250.804 241.331 250.805 241.331 250.807 241.332L250.809 241.333L250.813 241.336ZM257.383 123.034L242.56 138.112L235.981 133.35L254.541 118.605L257.383 123.034ZM230.605 162.048L239.923 152.192L238.208 144L235.546 143.898L230.477 153.114L222.643 153.728L213.658 166.682L218.547 169.779L230.605 162.048ZM255.821 151.04L267.315 155.033L268.109 163.046L239.078 182.758L224.538 179.123V173.67L233.677 165.606L255.821 151.04ZM200.629 191.283L196.917 198.502L187.547 193.305L189.749 189.542L200.629 191.283ZM118.298 201.779L120.295 186.547L120.32 181.99L119.194 177.408L115.892 177.075L111.847 201.011L118.298 201.779ZM122.932 206.899L121.216 214.81L117.3 214.17L115.252 210.995L116.583 205.363L122.932 206.899ZM123.597 222.925L123.059 218.394L118.989 218.752L119.603 222.925H123.597ZM124.673 226.458L125.697 228.941L122.369 230.4L121.217 227.712L124.673 226.458ZM123.444 233.473L123.291 235.418C123.342 235.418 126.132 234.343 126.158 234.317L125.031 231.911C125.031 231.911 123.419 233.293 123.444 233.473ZM258.51 222.49L259.815 219.751L263.937 222.029L262.99 225.639L264.398 226.688L262.452 237.159L254.234 236.314L259.431 223.514L258.51 222.49ZM253.235 229.453L250.035 228.685L247.398 232.32L251.853 233.575L253.235 229.453ZM348.288 394.599C345.882 399.181 344.628 400.896 340.429 405.427C336.077 410.189 327.527 414.899 324.89 416.103L314.548 420.557L311.936 420.915L310.784 416.922L328.935 399.13L337.178 397.389L343.629 393.626L348.288 394.599ZM335.796 420.761L338.894 418.534L336.692 416.077L333.236 418.15L335.796 420.761ZM271.54 262.912L269.979 269.133L267.419 268.647L267.598 263.783L270.132 264.141L270.747 262.58L271.54 262.912ZM117.991 241.178L121.652 239.923L120.475 236.058L117.095 237.312L117.991 241.178Z" fill="#0054A6"/>
<path d="M52.6757 231.73L52.9427 231.801L68.9673 213.94L85.1465 211.636L81.8698 201.575L92.0585 165.991L96.3337 153.728L97.2041 126.797C97.2845 126.699 97.3649 126.6 97.4454 126.502L97.4429 126.497C97.3544 126.606 97.2659 126.714 97.1776 126.822C73.2884 156.148 57.3382 192.217 52.6757 231.73Z" fill="#0054A6"/>
<path d="M360.884 98.7391L369.946 92.9278L363.393 87.859L331.239 94.6942L353.383 107.443L360.884 98.7391Z" fill="#0054A6"/>
</svg>
