<svg width="17" height="17" viewBox="0 0 17 17" fill="none" xmlns="http://www.w3.org/2000/svg">
<path d="M1.33456 15.3309V9.99267H10.6618V15.3309H1.33456ZM11.9963 9.99267V7.33822H5.33822V4.66911H14.6654V9.99267H11.9963ZM16 2H4.00367V7.33822H0V16.6654H11.9963V11.3272H16V2Z" fill="black"/>
</svg>
