<svg width="22" height="22" viewBox="0 0 22 22" fill="none" xmlns="http://www.w3.org/2000/svg">
<path d="M19.2603 5.75377C18.6536 6.03004 18.0005 6.21687 17.3155 6.30033C18.0151 5.87104 18.552 5.19031 18.8049 4.37942C18.1497 4.77691 17.4259 5.06609 16.6526 5.22112C16.0362 4.54636 15.1553 4.125 14.1803 4.125C12.311 4.125 10.7944 5.68024 10.7944 7.59815C10.7944 7.87054 10.8234 8.13482 10.8816 8.38919C8.06638 8.24413 5.57101 6.8628 3.89933 4.75901C3.60764 5.2738 3.44095 5.87104 3.44095 6.50705C3.44095 7.71145 4.03888 8.77474 4.94788 9.39789C4.39357 9.38098 3.87025 9.22299 3.41285 8.96463V9.00739C3.41285 10.6908 4.58059 12.095 6.13114 12.413C5.8472 12.4944 5.54774 12.5352 5.23861 12.5352C5.02057 12.5352 4.80737 12.5143 4.60096 12.4735C5.0322 13.8529 6.28232 14.8576 7.76501 14.8844C6.606 15.8167 5.1446 16.372 3.55821 16.372C3.28493 16.372 3.01456 16.3562 2.75 16.3243C4.24918 17.3083 6.03035 17.8836 7.94236 17.8836C14.1736 17.8836 17.5799 12.5919 17.5799 8.00172C17.5799 7.8506 17.577 7.69949 17.5712 7.55154C18.2331 7.06163 18.8077 6.4504 19.2603 5.75377Z" fill="#10A4B5"/>
</svg>
