<svg width="22" height="22" viewBox="0 0 22 22" fill="none" xmlns="http://www.w3.org/2000/svg">
<path fill-rule="evenodd" clip-rule="evenodd" d="M18.8072 5.08296C19.3569 5.63696 19.5363 6.89498 19.5363 6.89498C19.5363 6.89498 19.7198 8.37269 19.7198 9.84985V11.2352C19.7198 12.7129 19.5363 14.19 19.5363 14.19C19.5363 14.19 19.3569 15.4482 18.8072 16.0022C18.1785 16.6576 17.4815 16.7253 17.0876 16.7635C17.0444 16.7676 17.0047 16.7715 16.9692 16.7757C14.4021 16.9607 10.5474 16.9663 10.5474 16.9663C10.5474 16.9663 5.77775 16.923 4.31016 16.7826C4.24064 16.7697 4.15636 16.7596 4.06094 16.7482C3.59606 16.6928 2.86639 16.6058 2.28706 16.0022C1.7373 15.4482 1.55844 14.19 1.55844 14.19C1.55844 14.19 1.375 12.7129 1.375 11.2352V9.84985C1.375 8.37269 1.55844 6.89498 1.55844 6.89498C1.55844 6.89498 1.7373 5.63696 2.28706 5.08296C2.91702 4.42666 3.61463 4.35969 4.00861 4.32186C4.05131 4.31775 4.09046 4.31399 4.12556 4.30987C6.69269 4.125 10.5433 4.125 10.5433 4.125H10.5514C10.5514 4.125 14.4021 4.125 16.9692 4.30987C17.0044 4.31401 17.0435 4.31776 17.0862 4.32187C17.4799 4.3597 18.1778 4.42677 18.8072 5.08296ZM8.65267 7.78364L8.65322 12.9135L13.6093 10.3574L8.65267 7.78364Z" fill="#10A4B5"/>
</svg>
